<?xml version="1.0" encoding="UTF-8" standalone="no"?>
<svg xmlns:dc="http://purl.org/dc/elements/1.1/" xmlns:cc="http://creativecommons.org/ns#"
    xmlns:rdf="http://www.w3.org/1999/02/22-rdf-syntax-ns#" xmlns="http://www.w3.org/2000/svg"
    xmlns:sodipodi="http://sodipodi.sourceforge.net/DTD/sodipodi-0.dtd"
    xmlns:inkscape="http://www.inkscape.org/namespaces/inkscape"
    inkscape:version="1.0 (4035a4fb49, 2020-05-01)" sodipodi:docname="ic_launcher.svg"
    viewBox="0 0 24 24" height="24" width="24" id="svg2" version="1.1">
    <metadata id="metadata8">
        <rdf:RDF>
            <cc:Work rdf:about="">
                <dc:format>image/svg+xml</dc:format>
                <dc:type rdf:resource="http://purl.org/dc/dcmitype/StillImage" />
                <dc:title></dc:title>
            </cc:Work>
        </rdf:RDF>
    </metadata>
    <defs id="defs6" />
    <sodipodi:namedview inkscape:current-layer="svg2" inkscape:window-maximized="0"
        inkscape:window-y="72" inkscape:window-x="1920" inkscape:cy="12.568105"
        inkscape:cx="8.7017993" inkscape:zoom="18.766614" showgrid="false" id="namedview4"
        inkscape:window-height="982" inkscape:window-width="1920" inkscape:pageshadow="2"
        inkscape:pageopacity="0" guidetolerance="10" gridtolerance="10" objecttolerance="10"
        borderopacity="1" bordercolor="#666666" pagecolor="#ffffff" />
    <path
        d="m 19.60895,4.7912618 c -0.140913,-1.41e-4 -0.299026,2.83e-4 -0.476621,0.0012 l -1.606484,0.0075 0.23084,0.357119 0.208159,0.364588 2.339258,0.0498 1.703165,3.225695 -20.0689607,-0.0361 c 0,0 0.268586,-0.523795 0.759053,-1.3809 1.037387,-1.812872 0.913991,-1.804896 2.410764,-1.868861 l 1.010087,-0.04315 0.127385,-0.268462 c 0.10327,-0.185026 0.187689,-0.352327 0.187689,-0.371781 0,-0.01945 -0.699459,-0.03541 -1.554343,-0.03541 h -1.554342 l -0.169845,0.23015 c -0.09348,0.126582 -0.652906,1.07848 -1.243004,2.115331 -1.09973299,1.932349 -1.20146799,2.189506 -0.96153899,2.429437 L 22.873094,9.5374078 16.208568,13.842068 v 0.0184 1.165409 l 0.371781,-0.191562 c 0.520818,-0.268347 1.270637,-0.267686 1.792652,0.0015 0.768736,0.396448 1.184232,1.093886 1.193487,2.003162 0.0052,0.505352 -0.01987,0.620258 -0.22683,1.040653 -0.3785,0.768848 -1.038149,1.188628 -1.856414,1.181455 -0.253164,-0.0021 -0.555901,-0.03796 -0.672745,-0.07939 -0.116846,-0.04143 -0.300081,-0.136623 -0.407189,-0.211617 -0.107108,-0.07499 -0.194742,-0.104656 -0.194742,-0.06584 0,0.179333 -0.235575,0.29322 -0.60691,0.29322 h -0.384505 v -3.151342 -1.363888 l -1.184911,0.765414 c 0.249155,0.313658 0.264312,0.586221 0.264312,2.117406 v 1.63235 h -0.424338 c -0.332245,0 -0.441526,-0.02775 -0.504007,-0.1278 -0.07598,-0.121654 -0.09517,-0.119962 -0.402071,0.03541 -0.338604,0.171425 -1.037287,0.216478 -1.446182,0.09323 -0.654433,-0.197277 -1.079293,-0.914411 -0.911333,-1.538158 1.42e-4,-4.96e-4 2.84e-4,-0.0011 4.26e-4,-0.0015 l -0.6365096,0.411201 0.01549,1.127651 h -0.429873 c -0.344304,0 -0.446447,-0.02655 -0.513133,-0.133333 -0.08062,-0.129081 -0.09344,-0.127956 -0.400688,0.03541 -0.133836,0.07116 -0.30718,0.120138 -0.494601,0.147578 l -6.87227,4.438823 21.4075346,0.01411 c 0.104843,-0.06871 0.343858,-0.306969 0.409816,-0.413551 0.133371,-0.215508 0.111232,-0.540176 0.129184,-6.218472 0.01038,-3.283921 -0.04993,-7.3125682 -0.05229,-7.4686672 0.02732,-0.0542 0.04482,-0.109102 0.04482,-0.151036 0,-0.140756 -2.174662,-4.075038 -2.394444,-4.331908 -0.08322,-0.09727 -0.226732,-0.124264 -1.213128,-0.125034 z M 17.36236,15.595168 c -0.543289,0.0069 -1.044364,0.395928 -1.152824,0.989063 -0.117617,0.643163 0.199872,1.266276 0.742593,1.457385 0.344907,0.121447 0.4245,0.124954 0.75435,0.03333 0.986911,-0.274124 1.124316,-1.888556 0.200274,-2.352812 -0.177511,-0.08918 -0.363297,-0.12928 -0.544393,-0.126969 z m -4.179349,0.200827 -0.80013,0.516869 c 0.668868,-0.143686 0.851443,-0.221551 0.851443,-0.355184 0,-0.05964 -0.01818,-0.113797 -0.05132,-0.161685 z m 0.07635,1.159877 c -0.01901,-10e-6 -0.04492,0.007 -0.07898,0.01783 -0.08003,0.0254 -0.379477,0.110654 -0.665414,0.189486 -0.675069,0.186124 -0.838581,0.2947 -0.838581,0.55698 0,0.407179 0.643187,0.574319 1.111468,0.288793 0.293699,-0.179085 0.42776,-0.390972 0.488653,-0.772468 0.03464,-0.216987 0.03988,-0.280598 -0.01714,-0.280635 z"
        style="fill:#3b7ad3;stroke-width:0.0708154" id="path904" />
    <path
        d="m 23.171016,9.3448828 -22.32896369,0.009 c -0.03617,-0.120938 -0.06357,2.6086922 -0.06625,6.5919142 -0.0044,6.557769 2.13e-4,6.808809 0.131396,7.097716 0.0785,0.172924 0.23499499,0.359854 0.37025999,0.442319 0.381922,0.0019 3.737976,-2.1099 7.707393,-4.697878 -0.05112,-0.03848 -0.119493,-0.006 -0.340522,0.111478 -0.406487,0.216131 -1.174452,0.233053 -1.609251,0.03554 -0.531533,-0.241446 -0.88109,-0.854665 -0.783534,-1.374675 0.108943,-0.580722 0.658376,-1.0106 1.516721,-1.18685 0.891855,-0.18313 1.146324,-0.276747 1.146324,-0.421571 0,-0.201058 -0.317089,-0.377314 -0.678694,-0.377314 -0.383613,0 -0.64601,0.132086 -0.780906,0.392942 -0.0968,0.187181 -0.12716,0.197233 -0.595844,0.197233 -0.56813,0 -0.591564,-0.03682 -0.346054,-0.54398 0.568272,-1.173893 2.489708,-1.363645 3.215459,-0.317562 l 0.21286,0.306775 0.02337,1.693759 0.01148,0.836092 c 0.2006547,-0.131418 0.3946317,-0.257534 0.5970897,-0.390453 -6.37e-4,-0.09717 0.0097,-0.194342 0.03527,-0.289347 0.14986,-0.556531 0.681558,-0.918783 1.641892,-1.118661 0.352744,-0.07343 0.582636,-0.129455 0.733879,-0.182019 0.08147,-0.05391 0.161545,-0.107142 0.242874,-0.160993 0.0043,-0.01305 0.007,-0.02648 0.007,-0.04066 0,-0.2247 -0.250893,-0.375397 -0.634571,-0.381186 -0.388458,-0.0058 -0.688686,0.153975 -0.816175,0.434436 -0.06242,0.137297 -0.125032,0.153803 -0.584226,0.153803 -0.580601,0 -0.587398,-0.0091 -0.366801,-0.495708 0.188403,-0.415571 0.375966,-0.610087 0.808428,-0.838166 0.302063,-0.159307 0.442504,-0.186735 0.956007,-0.186858 0.648987,-1.43e-4 1.009404,0.128049 1.319489,0.469289 0.09338,0.10275 0.163524,0.186861 0.216734,0.284782 0.367102,-0.243634 0.724524,-0.481178 1.083945,-0.720323 v -1.982969 h 0.495708 0.495707 v 1.165549 0.157259 c 3.862608,-2.575477 6.962449,-4.6727062 6.962449,-4.6727062 z M 8.9143103,16.957118 8.3033894,17.125166 c -0.7675741,0.211178 -0.9470171,0.323855 -0.9470171,0.595015 0,0.389978 0.589931,0.56537 1.0688701,0.3177 h 2.829e-4 c 0.277455,-0.14347 0.4884591,-0.498342 0.488793,-0.821983 z m -3.854318,0.593354 c 0.393399,2.83e-4 0.737925,0.338559 0.738443,0.798887 0,0.175585 -0.06233,0.299797 -0.240524,0.478003 -0.283204,0.283207 -0.589238,0.317003 -0.938994,0.103734 -0.5097,-0.310794 -0.413781,-1.082396 0.16459,-1.324054 0.09236,-0.03859 0.1857,-0.05663 0.276485,-0.05656 z"
        style="fill:#4385f1;stroke-width:0.0708154" id="path908" />
    <path sodipodi:nodetypes="csssssssssssssssssscscssssssssssss"
        style="fill:#3bda83;stroke-width:0.0708154"
        d="m 5.4939323,7.7524598 c -0.120379,-0.194778 0.436292,-2.020614 0.776193,-2.600612 0.476821,-0.813634 1.365079,-1.731576 2.1640661,-2.236386 0.184686,-0.116687 0.335849,-0.249084 0.33592,-0.294213 7.1e-5,-0.04514 -0.24182,-0.503116 -0.537538,-1.017744 -0.463564,-0.80672902 -0.523856,-0.94949702 -0.437462,-1.03588802 0.0551,-0.0551 0.14569,-0.08204 0.201293,-0.05987 0.05559,0.02219 0.336436,0.454346 0.624081,0.96035402 0.287653,0.506008 0.548203,0.935594 0.579015,0.954635 0.03081,0.01904 0.225667,-0.02769 0.433015,-0.103853 1.4413686,-0.529431 3.0910336,-0.55764 4.5196906,-0.07729 0.504,0.169458 0.617863,0.18697 0.699882,0.107637 0.05387,-0.05211 0.326551,-0.487703 0.605961,-0.96798 0.372233,-0.63983902 0.544527,-0.87323202 0.644638,-0.87323202 0.256812,0 0.183114,0.24264 -0.352477,1.16046902 -0.294676,0.504983 -0.535774,0.933777 -0.535774,0.952878 0,0.0191 0.246969,0.209425 0.548819,0.422938 0.940045,0.664938 1.934071,1.76022 2.218473,2.520349 0.263044,0.703046 0.490213,1.639452 0.490213,1.9266 v 0.275339 h -6.440017 c -4.1347816,0 -6.5104166,0.03047 -6.5379916,-0.01414 z m 4.0191661,-2.132569 c 0.06366,-0.151427 0.07037,-0.27393 0.02249,-0.411267 -0.08591,-0.246412 -0.190388,-0.333142 -0.468296,-0.388724 -0.1831549,-0.03663 -0.25708,-0.0076 -0.435847,0.171169 -0.251422,0.251424 -0.274253,0.486192 -0.07224,0.743004 0.259644,0.330077 0.793989,0.266115 0.953896,-0.114182 z m 5.9860946,0.09027 c 0.0787,-0.147049 0.09056,-0.425994 0.02533,-0.595965 -0.04953,-0.129092 -0.384838,-0.321842 -0.559873,-0.321842 -0.176245,0 -0.529181,0.391451 -0.529181,0.586934 0,0.223493 0.241848,0.529557 0.444005,0.561891 0.226736,0.03626 0.538961,-0.08013 0.619719,-0.231018 z"
        id="path906" />
    <path style="fill:#073043;stroke-width:0.0708154"
        d="m 1.9079263,8.7591728 c 0.6293951,-1.117129 1.1738091,-2.151665 1.8492351,-3.328545 0.7669299,0.02488 2.3610119,0.03736 2.3610119,0.03736 l -0.624241,2.284466 c 0,0 1.370777,0.0095 6.5824397,0.0095 5.952998,0 6.365551,0.0147 6.383554,-0.01632 0,0 -0.03166,-0.706327 -0.24143,-1.326336 -0.09508,-0.281006 -0.273675,-0.865291 -0.253591,-0.89779 l 2.339191,0.04983 0.828066,1.461417 c 0.455434,0.803779 0.856105,1.691716 0.875084,1.764278 0.01045,0.01881 -20.0689176,-0.03614 -20.0993197,-0.03784 z"
        id="path900" sodipodi:nodetypes="ccccsssccsccc" />
</svg>
